%YAML 1.1
%TAG !u! tag:unity3d.com,2011:
--- !u!65 &1222548058
BoxCollider:
  m_ObjectHideFlags: 0
  m_CorrespondingSourceObject: {fileID: 0}
  m_PrefabInstance: {fileID: 0}
  m_PrefabAsset: {fileID: 0}
  m_GameObject: {fileID: 6685672154383129217}
  m_Material: {fileID: 0}
  m_IsTrigger: 0
  m_Enabled: 1
  serializedVersion: 2
  m_Size: {x: 3.8, y: 3.8, z: 1}
  m_Center: {x: 0, y: 6.5, z: 0}
--- !u!114 &1222548060
MonoBehaviour:
  m_ObjectHideFlags: 0
  m_CorrespondingSourceObject: {fileID: 0}
  m_PrefabInstance: {fileID: 0}
  m_PrefabAsset: {fileID: 0}
  m_GameObject: {fileID: 6685672154383129217}
  m_Enabled: 1
  m_EditorHideFlags: 0
  m_Script: {fileID: 11500000, guid: 8b7a78a339622f847a22a4f5c67298a8, type: 3}
  m_Name: 
  m_EditorClassIdentifier: 
--- !u!1001 &5767192161652516816
PrefabInstance:
  m_ObjectHideFlags: 0
  serializedVersion: 2
  m_Modification:
    m_TransformParent: {fileID: 0}
    m_Modifications:
    - target: {fileID: -8679921383154817045, guid: 6199ec8eb79a43f4e8ddf24bacb60dd1, type: 3}
      propertyPath: m_RootOrder
      value: 0
      objectReference: {fileID: 0}
    - target: {fileID: -8679921383154817045, guid: 6199ec8eb79a43f4e8ddf24bacb60dd1, type: 3}
      propertyPath: m_LocalPosition.x
      value: 0
      objectReference: {fileID: 0}
    - target: {fileID: -8679921383154817045, guid: 6199ec8eb79a43f4e8ddf24bacb60dd1, type: 3}
      propertyPath: m_LocalPosition.y
      value: 0
      objectReference: {fileID: 0}
    - target: {fileID: -8679921383154817045, guid: 6199ec8eb79a43f4e8ddf24bacb60dd1, type: 3}
      propertyPath: m_LocalPosition.z
      value: -100
      objectReference: {fileID: 0}
    - target: {fileID: -8679921383154817045, guid: 6199ec8eb79a43f4e8ddf24bacb60dd1, type: 3}
      propertyPath: m_LocalRotation.w
      value: 1
      objectReference: {fileID: 0}
    - target: {fileID: -8679921383154817045, guid: 6199ec8eb79a43f4e8ddf24bacb60dd1, type: 3}
      propertyPath: m_LocalRotation.x
      value: 0
      objectReference: {fileID: 0}
    - target: {fileID: -8679921383154817045, guid: 6199ec8eb79a43f4e8ddf24bacb60dd1, type: 3}
      propertyPath: m_LocalRotation.y
      value: -0
      objectReference: {fileID: 0}
    - target: {fileID: -8679921383154817045, guid: 6199ec8eb79a43f4e8ddf24bacb60dd1, type: 3}
      propertyPath: m_LocalRotation.z
      value: -0
      objectReference: {fileID: 0}
    - target: {fileID: -8679921383154817045, guid: 6199ec8eb79a43f4e8ddf24bacb60dd1, type: 3}
      propertyPath: m_LocalEulerAnglesHint.x
      value: 0
      objectReference: {fileID: 0}
    - target: {fileID: -8679921383154817045, guid: 6199ec8eb79a43f4e8ddf24bacb60dd1, type: 3}
      propertyPath: m_LocalEulerAnglesHint.y
      value: 0
      objectReference: {fileID: 0}
    - target: {fileID: -8679921383154817045, guid: 6199ec8eb79a43f4e8ddf24bacb60dd1, type: 3}
      propertyPath: m_LocalEulerAnglesHint.z
      value: 0
      objectReference: {fileID: 0}
    - target: {fileID: 919132149155446097, guid: 6199ec8eb79a43f4e8ddf24bacb60dd1, type: 3}
      propertyPath: m_Name
      value: target
      objectReference: {fileID: 0}
    m_RemovedComponents: []
  m_SourcePrefab: {fileID: 100100000, guid: 6199ec8eb79a43f4e8ddf24bacb60dd1, type: 3}
--- !u!1 &6685672154383129217 stripped
GameObject:
  m_CorrespondingSourceObject: {fileID: 919132149155446097, guid: 6199ec8eb79a43f4e8ddf24bacb60dd1, type: 3}
  m_PrefabInstance: {fileID: 5767192161652516816}
  m_PrefabAsset: {fileID: 0}
